%YAML 1.1
%TAG !u! tag:unity3d.com,2011:
--- !u!1045 &1
EditorBuildSettings:
  m_ObjectHideFlags: 0
  serializedVersion: 2
  m_Scenes:
  - enabled: 1
    path: Assets/Scenes/Menu.unity
    guid: b2918bbe50c6b5e45bbb3c639f8bfe4b
  - enabled: 1
    path: Assets/Scenes/Jogo.unity
    guid: 2cda990e2423bbf4892e6590ba056729
  m_configObjects: {}
